{
  "content": [
    {
      "timecreated": "2021-05-12T10:11:41.876",
      "timeupdated": "2022-01-24T16:14:45.208",
      "idOfficeCode": "8001",
      "idClientId": "210010002606",
      "officeName": "계룡시 상수",
      "hycheckDevice": {
        "timecreated": "2022-01-18T15:16:43.711",
        "timeupdated": "2022-02-15T09:04:20.915",
        "id": "353220621773420",
        "imei": "353220621773420",
        "inspectionStatus": "PASS",
        "stage": "RELEASED",
        "deviceName": "353220621773420",
        "deviceDescription": "",
        "deviceSerialNumber": "2111403652",
        "deviceCreateUserId": "youngit1",
        "deviceRegistrationDate": "2022-02-15T08:23:26",
        "iccid": "8982068088100083729",
        "deviceOrganizationId": 190867,
        "clientIdClientId": "353220621773420",
        "eposSerial": "21-04-300988",
        "eposInstallDate": 1621323883981,
        "eposBrightness": "38",
        "eposContrast": "255",
        "eposVer": "v1.10",
        "latitude": 36.2686902,
        "longitude": 127.2715125,
        "si": "충남",
        "gu": "계룡시",
        "dong": "두마면 두계리",
        "installed": 1643008485203,
        "durableYear": 8,
        "deviceFirmwareVersion": "V07",
        "status1": 0,
        "status2": 0,
        "batteryMv": 3591,
        "batteryPer": 95,
        "radioStrength": -95,
        "interval": 4,
        "lastFilename": "1644881022.jpg",
        "lastFiletime": 1644881022000,
        "meterType": 0,
        "meterRotation": false
      },
      "weeklyAvg": {
        "timeupdated": "2021-09-14T02:41:19.471",
        "idOfficeCode": "8001",
        "idClientId": "210010002606",
        "aggAvg": 7.9375,
        "value": 0.0,
        "count": 16,
        "status": "NORMAL"
      },
      "name": "금암제일교회",
      "addrNew": "두계리 75/두마면 팥거리로 162-9",
      "addrOld": "",
      "tel1": "841-9192",
      "clientTypeId": 1540993,
      "clientTypeName": "일반",
      "readingDay": 15,
      "meterSerial": "15-008806",
      "meterDia": "13",
      "meterLocation": "",
      "createUserId": "youngit1",
      "installed": 1643008485203,
      "openDate": "2021-01-01"
    },
    {
      "timecreated": "2021-05-12T10:11:41.890",
      "timeupdated": "2021-09-14T15:24:26.027",
      "idOfficeCode": "8001",
      "idClientId": "210010004200",
      "officeName": "계룡시 상수",
      "hycheckDevice": {
        "timecreated": "2021-05-10T16:55:19.803",
        "timeupdated": "2022-02-15T07:35:30.419",
        "id": "353220620587938",
        "imei": "353220620587938",
        "inspectionStatus": "PASS",
        "stage": "RELEASED",
        "deviceName": "353220620587938",
        "deviceSerialNumber": "2103401110",
        "deviceCreateUserId": "youngit",
        "deviceRegistrationDate": "2022-02-15T07:35:06",
        "iccid": "8982068088100017156",
        "deviceOrganizationId": 190867,
        "clientIdClientId": "353220620587938",
        "eposSerial": "21-04-301102",
        "eposInstallDate": 1621821877940,
        "eposBrightness": "40",
        "eposContrast": "255",
        "eposVer": "v1.10",
        "latitude": 36.2705979,
        "longitude": 127.2678939,
        "si": "충남",
        "gu": "계룡시",
        "dong": "두마면 두계리",
        "installed": 1621821877940,
        "durableYear": 8,
        "deviceFirmwareVersion": "V07",
        "status1": 0,
        "status2": 0,
        "batteryMv": 3571,
        "batteryPer": 95,
        "radioStrength": -97,
        "interval": 4,
        "lastFilename": "1644878123.jpg",
        "lastFiletime": 1644878123000,
        "meterType": 0,
        "meterRotation": false
      },
      "weeklyAvg": {
        "timeupdated": "2021-09-14T02:41:19.476",
        "idOfficeCode": "8001",
        "idClientId": "210010004200",
        "aggAvg": 7.133333333333334,
        "value": 0.0,
        "count": 15,
        "status": "NORMAL"
      },
      "name": "이종오",
      "addrNew": "두마면 두계3리 61-21/두마면 팥거리3길 8",
      "addrOld": "",
      "tel1": "010-2908-8066",
      "clientTypeId": 1540993,
      "clientTypeName": "일반",
      "readingDay": 15,
      "meterSerial": "10007092",
      "meterDia": "13",
      "meterLocation": "",
      "createUserId": "youngit1",
      "installed": 1621821877940,
      "openDate": "2021-01-01"
    },
    {
      "timecreated": "2021-05-12T10:11:41.901",
      "timeupdated": "2021-09-14T15:24:34.694",
      "idOfficeCode": "8001",
      "idClientId": "210010004202",
      "officeName": "계룡시 상수",
      "hycheckDevice": {
        "timecreated": "2021-05-10T16:55:20.224",
        "timeupdated": "2022-02-15T07:54:30.578",
        "id": "353220620587961",
        "imei": "353220620587961",
        "inspectionStatus": "PASS",
        "stage": "RELEASED",
        "deviceName": "353220620587961",
        "deviceSerialNumber": "2103401113",
        "deviceCreateUserId": "youngit",
        "deviceRegistrationDate": "2022-02-15T07:53:57",
        "iccid": "8982068088100014864",
        "deviceOrganizationId": 190867,
        "clientIdClientId": "353220620587961",
        "eposSerial": "21-05-300007",
        "eposInstallDate": 1621823468243,
        "eposBrightness": "30",
        "eposContrast": "230",
        "eposVer": "v1.10",
        "latitude": 36.2705394,
        "longitude": 127.2679814,
        "si": "충남",
        "gu": "계룡시",
        "dong": "두마면 두계리",
        "installed": 1621823468243,
        "durableYear": 8,
        "deviceFirmwareVersion": "V07",
        "status1": 0,
        "status2": 0,
        "batteryMv": 3552,
        "batteryPer": 95,
        "radioStrength": -102,
        "interval": 4,
        "lastFilename": "1644879249.jpg",
        "lastFiletime": 1644879249000,
        "meterType": 0,
        "meterRotation": false
      },
      "weeklyAvg": {
        "timeupdated": "2021-09-14T02:41:19.476",
        "idOfficeCode": "8001",
        "idClientId": "210010004202",
        "aggAvg": -4.333333333333333,
        "value": 0.0,
        "count": 15,
        "status": "NORMAL"
      },
      "name": "김기태",
      "addrNew": "두계리 산20-1/두마면 팥거리3길 7",
      "addrOld": "",
      "tel1": "042-841-8532",
      "clientTypeId": 1540993,
      "clientTypeName": "일반",
      "readingDay": 15,
      "meterSerial": "19-005909",
      "meterDia": "13",
      "meterLocation": "",
      "createUserId": "youngit1",
      "installed": 1621823468243,
      "openDate": "2021-01-01"
    },
    {
      "timecreated": "2021-05-12T10:11:41.915",
      "timeupdated": "2021-09-14T15:24:43.177",
      "idOfficeCode": "8001",
      "idClientId": "210010008103",
      "officeName": "계룡시 상수",
      "hycheckDevice": {
        "timecreated": "2021-05-10T16:55:44.217",
        "timeupdated": "2022-02-15T05:54:30.700",
        "id": "353220620589751",
        "imei": "353220620589751",
        "inspectionStatus": "PASS",
        "stage": "RELEASED",
        "deviceName": "353220620589751",
        "deviceSerialNumber": "2103401292",
        "deviceCreateUserId": "youngit",
        "deviceRegistrationDate": "2022-02-15T05:54:24",
        "iccid": "8982068088100014344",
        "deviceOrganizationId": 190867,
        "clientIdClientId": "353220620589751",
        "eposSerial": "21-05-300179",
        "eposInstallDate": 1622262186564,
        "eposBrightness": "40",
        "eposContrast": "255",
        "eposVer": "v1.10",
        "latitude": 36.2681696,
        "longitude": 127.2715068,
        "si": "충남",
        "gu": "계룡시",
        "dong": "두마면 두계리",
        "installed": 1622262186564,
        "durableYear": 8,
        "deviceFirmwareVersion": "V07",
        "status1": 0,
        "status2": 0,
        "batteryMv": 3576,
        "batteryPer": 95,
        "radioStrength": -90,
        "interval": 4,
        "lastFilename": "1644872081.jpg",
        "lastFiletime": 1644872081000,
        "meterType": 0,
        "meterRotation": false
      },
      "weeklyAvg": {
        "timeupdated": "2021-09-14T02:41:19.478",
        "idOfficeCode": "8001",
        "idClientId": "210010008103",
        "aggAvg": 0.4666666666666667,
        "value": 0.0,
        "count": 15,
        "status": "NORMAL"
      },
      "name": "안승혁",
      "addrNew": "두계리 70/두계리 70",
      "addrOld": "",
      "tel1": "",
      "clientTypeId": 1540993,
      "clientTypeName": "일반",
      "readingDay": 15,
      "meterSerial": "15-000808",
      "meterDia": "13",
      "meterLocation": "",
      "createUserId": "youngit1",
      "installed": 1622262186564,
      "openDate": "2021-01-01"
    },
    {
      "timecreated": "2021-05-12T10:11:41.927",
      "timeupdated": "2022-02-13T16:25:55.826",
      "idOfficeCode": "8001",
      "idClientId": "210010012400",
      "officeName": "계룡시 상수",
      "hycheckDevice": {
        "timecreated": "2022-01-18T15:16:44.862",
        "timeupdated": "2022-02-15T08:26:30.331",
        "id": "353220621773578",
        "imei": "353220621773578",
        "inspectionStatus": "PASS",
        "stage": "RELEASED",
        "deviceName": "353220621773578",
        "deviceSerialNumber": "2111403667",
        "deviceCreateUserId": "youngit1",
        "deviceRegistrationDate": "2022-02-15T08:25:45",
        "iccid": "8982068088100137681",
        "deviceOrganizationId": 190867,
        "clientIdClientId": "353220621773578",
        "eposSerial": "21-04-300818",
        "eposInstallDate": 1621293773667,
        "eposBrightness": "30",
        "eposContrast": "255",
        "eposVer": "v1.10",
        "latitude": 36.267346,
        "longitude": 127.2737108,
        "si": "충남",
        "gu": "계룡시",
        "dong": "두마면 두계리",
        "installed": 1644737155820,
        "durableYear": 8,
        "deviceFirmwareVersion": "V07",
        "status1": 0,
        "status2": 0,
        "batteryMv": 3584,
        "batteryPer": 95,
        "radioStrength": -89,
        "interval": 4,
        "lastFilename": "1644881161.jpg",
        "lastFiletime": 1644881161000,
        "meterType": 0,
        "meterRotation": false
      },
      "weeklyAvg": {
        "timeupdated": "2021-09-14T02:41:19.470",
        "idOfficeCode": "8001",
        "idClientId": "210010012400",
        "aggAvg": 0.0,
        "value": 0.0,
        "count": 16,
        "status": "NORMAL"
      },
      "name": "민경준",
      "addrNew": "두마면 두계리 50-2 /두마면 팥거리2길 12-9",
      "addrOld": "",
      "tel1": "010-5438-8415",
      "clientTypeId": 1540993,
      "clientTypeName": "일반",
      "readingDay": 15,
      "meterSerial": "14-014756",
      "meterDia": "13",
      "meterLocation": "",
      "createUserId": "youngit1",
      "installed": 1644737155820,
      "openDate": "2021-01-01"
    },
    {
      "timecreated": "2021-05-12T10:11:41.942",
      "timeupdated": "2022-02-13T15:58:47.277",
      "idOfficeCode": "8001",
      "idClientId": "210010012502",
      "officeName": "계룡시 상수",
      "hycheckDevice": {
        "timecreated": "2022-01-18T15:16:44.800",
        "timeupdated": "2022-02-15T07:58:30.541",
        "id": "353220621773560",
        "imei": "353220621773560",
        "inspectionStatus": "PASS",
        "stage": "RELEASED",
        "deviceName": "353220621773560",
        "deviceSerialNumber": "2111403666",
        "deviceCreateUserId": "youngit1",
        "deviceRegistrationDate": "2022-02-15T07:58:10",
        "iccid": "8982068088100122345",
        "deviceOrganizationId": 190867,
        "clientIdClientId": "353220621773560",
        "eposSerial": "21-04-300817",
        "eposInstallDate": 1625038262843,
        "eposBrightness": "30",
        "eposContrast": "255",
        "eposVer": "v1.10",
        "latitude": 36.2676167,
        "longitude": 127.2738859,
        "si": "충남",
        "gu": "계룡시",
        "dong": "두마면 두계리",
        "installed": 1644735527271,
        "durableYear": 8,
        "deviceFirmwareVersion": "V07",
        "status1": 0,
        "status2": 0,
        "batteryMv": 3608,
        "batteryPer": 95,
        "radioStrength": -87,
        "interval": 4,
        "lastFilename": "1644879506.jpg",
        "lastFiletime": 1644879506000,
        "meterType": 0,
        "meterRotation": false
      },
      "weeklyAvg": {
        "timeupdated": "2021-09-14T02:41:19.470",
        "idOfficeCode": "8001",
        "idClientId": "210010012502",
        "aggAvg": 317.0,
        "value": 0.0,
        "count": 12,
        "status": "NORMAL"
      },
      "name": "계룡시장(가족행복과)",
      "addrNew": "두계리 50-4 (계룡시니어클럽)/두마면 팥거리2길 4-5 (두계재래시장)",
      "addrOld": "",
      "tel1": "840-2371",
      "clientTypeId": 1540993,
      "clientTypeName": "일반",
      "readingDay": 15,
      "meterSerial": "14-000725",
      "meterDia": "25",
      "meterLocation": "",
      "createUserId": "youngit1",
      "installed": 1644735527271,
      "openDate": "2021-01-01"
    },
    {
      "timecreated": "2021-05-12T10:11:41.956",
      "timeupdated": "2021-09-14T15:25:56.745",
      "idOfficeCode": "8001",
      "idClientId": "210010013306",
      "officeName": "계룡시 상수",
      "hycheckDevice": {
        "timecreated": "2021-08-06T10:34:44.348",
        "timeupdated": "2022-02-15T07:30:46.397",
        "id": "353220620779238",
        "imei": "353220620779238",
        "inspectionStatus": "PASS",
        "stage": "RELEASED",
        "deviceName": "353220620779238",
        "deviceSerialNumber": "2106400605",
        "deviceCreateUserId": "youngit",
        "deviceRegistrationDate": "2022-02-15T07:30:41",
        "iccid": "8982068088100065494",
        "deviceOrganizationId": 190867,
        "clientIdClientId": "353220620779238",
        "eposSerial": "21-05-300001",
        "eposInstallDate": 1628466969543,
        "eposBrightness": "20",
        "eposContrast": "255",
        "eposVer": "v1.10",
        "latitude": 36.2694883,
        "longitude": 127.2712877,
        "si": "충남",
        "gu": "계룡시",
        "dong": "두마면 두계리",
        "installed": 1628466969543,
        "durableYear": 8,
        "deviceFirmwareVersion": "V07",
        "status1": 0,
        "status2": 0,
        "batteryMv": 3615,
        "batteryPer": 95,
        "radioStrength": -85,
        "interval": 4,
        "lastFilename": "1644877858.jpg",
        "lastFiletime": 1644877858000,
        "meterType": 0,
        "meterRotation": false
      },
      "weeklyAvg": {
        "timeupdated": "2021-09-14T02:41:19.506",
        "idOfficeCode": "8001",
        "idClientId": "210010013306",
        "aggAvg": 0.3333333333333333,
        "value": 0.0,
        "count": 15,
        "status": "NORMAL"
      },
      "name": "박만순",
      "addrNew": "두계리 56-3/두마면 팥거리로 163",
      "addrOld": "",
      "tel1": "",
      "clientTypeId": 1540993,
      "clientTypeName": "일반",
      "readingDay": 15,
      "meterSerial": "14-014754",
      "meterDia": "13",
      "meterLocation": "",
      "createUserId": "youngit1",
      "installed": 1628466969543,
      "openDate": "2021-01-01"
    },
    {
      "timecreated": "2021-05-12T10:11:41.969",
      "timeupdated": "2021-09-24T14:25:45.374",
      "idOfficeCode": "8001",
      "idClientId": "210010013307",
      "officeName": "계룡시 상수",
      "hycheckDevice": {
        "timecreated": "2021-06-22T16:25:03.676",
        "timeupdated": "2022-02-15T08:18:30.475",
        "id": "353220620775988",
        "imei": "353220620775988",
        "inspectionStatus": "PASS",
        "stage": "RELEASED",
        "deviceName": "353220620775988",
        "deviceDescription": "",
        "deviceSerialNumber": "2106400280",
        "deviceCreateUserId": "youngit",
        "deviceRegistrationDate": "2022-02-15T08:18:05",
        "iccid": "8982068088100054746",
        "deviceOrganizationId": 190867,
        "clientIdClientId": "353220620775988",
        "eposSerial": "21-04-300842",
        "eposInstallDate": 1626328402160,
        "eposBrightness": "40",
        "eposContrast": "255",
        "eposVer": "v1.10",
        "latitude": 36.2693274,
        "longitude": 127.2713919,
        "si": "충남",
        "gu": "계룡시",
        "dong": "두마면 두계리",
        "installed": 1626328402160,
        "durableYear": 8,
        "deviceFirmwareVersion": "V07",
        "status1": 0,
        "status2": 0,
        "batteryMv": 3573,
        "batteryPer": 95,
        "radioStrength": -119,
        "interval": 4,
        "lastFilename": "1644880702.jpg",
        "lastFiletime": 1644880702000,
        "meterType": 0,
        "meterRotation": false
      },
      "weeklyAvg": {
        "timeupdated": "2021-09-24T14:56:54.231",
        "idOfficeCode": "8001",
        "idClientId": "210010013307",
        "aggAvg": 0.3125,
        "value": 0.0,
        "count": 16,
        "status": "NORMAL",
        "releaseUntil": "2021-09-24T23:59:59"
      },
      "name": "박만순(미용실)",
      "addrNew": "두계리 56-3/두마면 팥거리로 163",
      "addrOld": "",
      "tel1": "010-6711-7009",
      "clientTypeId": 1540993,
      "clientTypeName": "일반",
      "clientClassId": 1540965,
      "clientClassName": "가정용",
      "readingDay": 15,
      "meterSerial": "14-014757",
      "meterDia": "13",
      "meterLocation": "",
      "createUserId": "youngit1",
      "installed": 1626328402160,
      "openDate": "2021-01-01"
    },
    {
      "timecreated": "2021-05-12T10:11:41.979",
      "timeupdated": "2022-02-13T17:41:18.363",
      "idOfficeCode": "8001",
      "idClientId": "210010015702",
      "officeName": "계룡시 상수",
      "hycheckDevice": {
        "timecreated": "2022-01-18T15:16:44.999",
        "timeupdated": "2022-02-15T05:39:30.341",
        "id": "353220621773602",
        "imei": "353220621773602",
        "inspectionStatus": "PASS",
        "stage": "RELEASED",
        "deviceName": "353220621773602",
        "deviceSerialNumber": "2111403670",
        "deviceCreateUserId": "youngit1",
        "deviceRegistrationDate": "2022-02-15T05:39:03",
        "iccid": "8982068088100077432",
        "deviceOrganizationId": 190867,
        "clientIdClientId": "353220621773602",
        "eposSerial": "21-05-300143",
        "eposInstallDate": 1622603119543,
        "eposBrightness": "30",
        "eposContrast": "255",
        "eposVer": "v1.10",
        "latitude": 36.2663736,
        "longitude": 127.275612,
        "si": "충남",
        "gu": "계룡시",
        "dong": "두마면 두계리",
        "installed": 1644741678355,
        "durableYear": 8,
        "deviceFirmwareVersion": "V07",
        "status1": 0,
        "status2": 0,
        "batteryMv": 3519,
        "batteryPer": 90,
        "radioStrength": -78,
        "interval": 4,
        "lastFilename": "1644871159.jpg",
        "lastFiletime": 1644871159000,
        "meterType": 0,
        "meterRotation": false
      },
      "weeklyAvg": {
        "timeupdated": "2021-09-14T02:41:19.478",
        "idOfficeCode": "8001",
        "idClientId": "210010015702",
        "aggAvg": 5.0,
        "value": 0.0,
        "count": 14,
        "status": "NORMAL"
      },
      "name": "김정순",
      "addrNew": "두계리 97-1/두마면 사계로 122-10",
      "addrOld": "",
      "tel1": "841-8403",
      "clientTypeId": 1540993,
      "clientTypeName": "일반",
      "readingDay": 15,
      "meterSerial": "16-000461",
      "meterDia": "20",
      "meterLocation": "",
      "createUserId": "youngit1",
      "installed": 1644741678355,
      "openDate": "2021-01-01"
    },
    {
      "timecreated": "2021-05-12T10:11:41.992",
      "timeupdated": "2021-09-14T15:26:20.526",
      "idOfficeCode": "8001",
      "idClientId": "210010016800",
      "officeName": "계룡시 상수",
      "hycheckDevice": {
        "timecreated": "2021-05-10T16:55:15.395",
        "timeupdated": "2022-02-15T09:25:30.406",
        "id": "353220620587599",
        "imei": "353220620587599",
        "inspectionStatus": "PASS",
        "stage": "RELEASED",
        "deviceName": "353220620587599",
        "deviceSerialNumber": "2103401076",
        "deviceCreateUserId": "youngit",
        "deviceRegistrationDate": "2022-02-15T09:25:15",
        "iccid": "8982068088100026884",
        "deviceOrganizationId": 190867,
        "clientIdClientId": "353220620587599",
        "eposSerial": "21-05-300009",
        "eposInstallDate": 1621818222865,
        "eposBrightness": "40",
        "eposContrast": "255",
        "eposVer": "v1.10",
        "latitude": 36.2708769,
        "longitude": 127.2672872,
        "si": "충남",
        "gu": "계룡시",
        "dong": "두마면 두계리",
        "installed": 1621818222865,
        "durableYear": 8,
        "deviceFirmwareVersion": "V07",
        "status1": 0,
        "status2": 0,
        "batteryMv": 3547,
        "batteryPer": 90,
        "radioStrength": -96,
        "interval": 4,
        "lastFilename": "1644884732.jpg",
        "lastFiletime": 1644884732000,
        "meterType": 0,
        "meterRotation": false
      },
      "weeklyAvg": {
        "timeupdated": "2021-09-14T02:41:19.476",
        "idOfficeCode": "8001",
        "idClientId": "210010016800",
        "aggAvg": 0.26666666666666666,
        "value": 0.0,
        "count": 15,
        "status": "NORMAL"
      },
      "name": "강정숙(김기태)",
      "addrNew": "두마면 두계3리 61-14/팥거리3길 6-3 (두계리)",
      "addrOld": "",
      "tel1": "010-7795-8532",
      "clientTypeId": 1540993,
      "clientTypeName": "일반",
      "readingDay": 15,
      "meterSerial": "12097365",
      "meterDia": "13",
      "meterLocation": "",
      "createUserId": "youngit1",
      "installed": 1621818222865,
      "openDate": "2021-01-01"
    }
  ],
  "pageable": {
    "sort": {
      "sorted": true,
      "unsorted": false
    },
    "pageSize": 10,
    "pageNumber": 0,
    "offset": 0,
    "paged": true,
    "unpaged": false
  },
  "last": false,
  "totalElements": 1141,
  "totalPages": 115,
  "sort": {
    "sorted": true,
    "unsorted": false
  },
  "numberOfElements": 10,
  "first": true,
  "size": 10,
  "number": 0
}