{
  "content": [
    {
      "time": 1644881022000,
      "officeCode": "8001",
      "clientId": "210010002606",
      "endpoint": "353220621773420",
      "mediaType": "image/jpeg",
      "filename": "1644881022.jpg",
      "filepath": "/image/HYCHECK/8001/210010002606/353220621773420/2022/2/1644881022.jpg?token=eyJ0eXAiOiJKV1QiLCJhbGciOiJub25lIn0.eyJpZCI6IjE2NDQ4ODEwMjIuanBnIiwiZXhwIjoxNjQ0OTcxMzgzLCJpYXQiOjE2NDQ4ODQ5ODN9.",
      "value": 1078.0,
      "strValue": "01078",
      "status": "PROCESSED",
      "delta": 0.0,
      "meterType": 0
    },
    {
      "time": 1644866620000,
      "officeCode": "8001",
      "clientId": "210010002606",
      "endpoint": "353220621773420",
      "mediaType": "image/jpeg",
      "filename": "1644866620.jpg",
      "filepath": "/image/HYCHECK/8001/210010002606/353220621773420/2022/2/1644866620.jpg?token=eyJ0eXAiOiJKV1QiLCJhbGciOiJub25lIn0.eyJpZCI6IjE2NDQ4NjY2MjAuanBnIiwiZXhwIjoxNjQ0OTcxMzgzLCJpYXQiOjE2NDQ4ODQ5ODN9.",
      "value": 1078.0,
      "strValue": "01078",
      "status": "PROCESSED",
      "delta": 0.0,
      "meterType": 0
    },
    {
      "time": 1644852217000,
      "officeCode": "8001",
      "clientId": "210010002606",
      "endpoint": "353220621773420",
      "mediaType": "image/jpeg",
      "filename": "1644852217.jpg",
      "filepath": "/image/HYCHECK/8001/210010002606/353220621773420/2022/2/1644852217.jpg?token=eyJ0eXAiOiJKV1QiLCJhbGciOiJub25lIn0.eyJpZCI6IjE2NDQ4NTIyMTcuanBnIiwiZXhwIjoxNjQ0OTcxMzgzLCJpYXQiOjE2NDQ4ODQ5ODN9.",
      "value": 1078.0,
      "strValue": "01078",
      "status": "PROCESSED",
      "delta": 0.0,
      "meterType": 0
    },
    {
      "time": 1644837814000,
      "officeCode": "8001",
      "clientId": "210010002606",
      "endpoint": "353220621773420",
      "mediaType": "image/jpeg",
      "filename": "1644837814.jpg",
      "filepath": "/image/HYCHECK/8001/210010002606/353220621773420/2022/2/1644837814.jpg?token=eyJ0eXAiOiJKV1QiLCJhbGciOiJub25lIn0.eyJpZCI6IjE2NDQ4Mzc4MTQuanBnIiwiZXhwIjoxNjQ0OTcxMzgzLCJpYXQiOjE2NDQ4ODQ5ODN9.",
      "value": 1078.0,
      "strValue": "01078",
      "status": "PROCESSED",
      "delta": 0.0,
      "meterType": 0
    },
    {
      "time": 1644823410000,
      "officeCode": "8001",
      "clientId": "210010002606",
      "endpoint": "353220621773420",
      "mediaType": "image/jpeg",
      "filename": "1644823410.jpg",
      "filepath": "/image/HYCHECK/8001/210010002606/353220621773420/2022/2/1644823410.jpg?token=eyJ0eXAiOiJKV1QiLCJhbGciOiJub25lIn0.eyJpZCI6IjE2NDQ4MjM0MTAuanBnIiwiZXhwIjoxNjQ0OTcxMzgzLCJpYXQiOjE2NDQ4ODQ5ODN9.",
      "value": 1078.0,
      "strValue": "01078",
      "status": "PROCESSED",
      "delta": 0.0,
      "meterType": 0
    },
    {
      "time": 1644809008000,
      "officeCode": "8001",
      "clientId": "210010002606",
      "endpoint": "353220621773420",
      "mediaType": "image/jpeg",
      "filename": "1644809008.jpg",
      "filepath": "/image/HYCHECK/8001/210010002606/353220621773420/2022/2/1644809008.jpg?token=eyJ0eXAiOiJKV1QiLCJhbGciOiJub25lIn0.eyJpZCI6IjE2NDQ4MDkwMDguanBnIiwiZXhwIjoxNjQ0OTcxMzgzLCJpYXQiOjE2NDQ4ODQ5ODN9.",
      "value": 1078.0,
      "strValue": "01078",
      "status": "PROCESSED",
      "delta": 0.0,
      "meterType": 0
    },
    {
      "time": 1644794605000,
      "officeCode": "8001",
      "clientId": "210010002606",
      "endpoint": "353220621773420",
      "mediaType": "image/jpeg",
      "filename": "1644794605.jpg",
      "filepath": "/image/HYCHECK/8001/210010002606/353220621773420/2022/2/1644794605.jpg?token=eyJ0eXAiOiJKV1QiLCJhbGciOiJub25lIn0.eyJpZCI6IjE2NDQ3OTQ2MDUuanBnIiwiZXhwIjoxNjQ0OTcxMzgzLCJpYXQiOjE2NDQ4ODQ5ODN9.",
      "value": 1078.0,
      "strValue": "01078",
      "status": "PROCESSED",
      "delta": 0.0,
      "meterType": 0
    },
    {
      "time": 1644780202000,
      "officeCode": "8001",
      "clientId": "210010002606",
      "endpoint": "353220621773420",
      "mediaType": "image/jpeg",
      "filename": "1644780202.jpg",
      "filepath": "/image/HYCHECK/8001/210010002606/353220621773420/2022/2/1644780202.jpg?token=eyJ0eXAiOiJKV1QiLCJhbGciOiJub25lIn0.eyJpZCI6IjE2NDQ3ODAyMDIuanBnIiwiZXhwIjoxNjQ0OTcxMzgzLCJpYXQiOjE2NDQ4ODQ5ODN9.",
      "value": 1078.0,
      "strValue": "01078",
      "status": "PROCESSED",
      "delta": 0.0,
      "meterType": 0
    },
    {
      "time": 1644765799000,
      "officeCode": "8001",
      "clientId": "210010002606",
      "endpoint": "353220621773420",
      "mediaType": "image/jpeg",
      "filename": "1644765799.jpg",
      "filepath": "/image/HYCHECK/8001/210010002606/353220621773420/2022/2/1644765799.jpg?token=eyJ0eXAiOiJKV1QiLCJhbGciOiJub25lIn0.eyJpZCI6IjE2NDQ3NjU3OTkuanBnIiwiZXhwIjoxNjQ0OTcxMzgzLCJpYXQiOjE2NDQ4ODQ5ODN9.",
      "value": 1078.0,
      "strValue": "01078",
      "status": "PROCESSED",
      "delta": 0.0,
      "meterType": 0
    },
    {
      "time": 1644751396000,
      "officeCode": "8001",
      "clientId": "210010002606",
      "endpoint": "353220621773420",
      "mediaType": "image/jpeg",
      "filename": "1644751396.jpg",
      "filepath": "/image/HYCHECK/8001/210010002606/353220621773420/2022/2/1644751396.jpg?token=eyJ0eXAiOiJKV1QiLCJhbGciOiJub25lIn0.eyJpZCI6IjE2NDQ3NTEzOTYuanBnIiwiZXhwIjoxNjQ0OTcxMzgzLCJpYXQiOjE2NDQ4ODQ5ODN9.",
      "value": 1078.0,
      "strValue": "01078",
      "status": "PROCESSED",
      "delta": 1.0,
      "meterType": 0
    }
  ],
  "pageable": {
    "sort": {
      "sorted": true,
      "unsorted": false
    },
    "pageSize": 10,
    "pageNumber": 0,
    "offset": 0,
    "paged": true,
    "unpaged": false
  },
  "last": false,
  "totalElements": 39,
  "totalPages": 4,
  "sort": {
    "sorted": true,
    "unsorted": false
  },
  "numberOfElements": 10,
  "first": true,
  "size": 10,
  "number": 0
}